563691	M25128	M25127	M25129	M25125	M25130	M25126	M25123	M25124	Nov 3, 1994 12:08 AM
38230496	AF104632.1	Nov 10, 2003 08:47 AM
217890	X54487.1	Nov 8, 2001 08:38 AM
18130	D90207	Jul 30, 2002 01:50 PM
22591	S84926.1	Aug 17, 2005 02:41 PM
18199	S84927.1	Aug 17, 2005 02:41 PM
18122	S42009.1	Jun 21, 2005 10:13 AM
18136	S77102.1	Aug 11, 2005 09:46 AM
18134	S77100.1	Aug 11, 2005 09:46 AM
18243	S65065.1	Sep 21, 2004 08:48 AM
